…
## Rows: 429 Columns: 6

## ── Column specification ────────────────────────────────────────────────────────
## Delimiter: ","
## chr (4): name, party, term, position_title
## dbl (2): year, salary

## 
## ℹ Use `spec()` to retrieve the full column specification for this data.
## ℹ Specify the column types or set `show_col_types = FALSE` to quiet this message.

pvp_dataset

## # A tibble: 429 × 6
##     year name              party        term   salary position_title            
##    <dbl> <chr>             <chr>        <chr>   <dbl> <chr>                     
##  1  1789 Washington,George Unaffiliated First   25000 PRESIDENT OF THE UNITED S…
##  2  1790 Washington,George Unaffiliated First   25000 PRESIDENT OF THE UNITED S…
##  3  1791 Washington,George Unaffiliated First   25000 PRESIDENT OF THE UNITED S…
##  4  1792 Washington,George Unaffiliated First   25000 PRESIDENT OF THE UNITED S…
##  5  1793 Washington,George Unaffiliated Second  25000 PRESIDENT OF THE UNITED S…
##  6  1794 Washington,George Unaffiliated Second  25000 PRESIDENT OF THE UNITED S…
##  7  1795 Washington,George Unaffiliated Second  25000 PRESIDENT OF THE UNITED S…
##  8  1796 Washington,George Unaffiliated Second  25000 PRESIDENT OF THE UNITED S…
##  9  1797 Adams,John        Federalist   First   25000 PRESIDENT OF THE UNITED S…
## 10  1798 Adams,John        Federalist   First   25000 PRESIDENT OF THE UNITED S…
## # … with 419 more rows

pres_salary <- pvp_dataset %>% filter(position_title == "PRESIDENT OF THE UNITED STATES")
pres_salary

## # A tibble: 232 × 6
##     year name              party        term   salary position_title            
##    <dbl> <chr>             <chr>        <chr>   <dbl> <chr>                     
##  1  1789 Washington,George Unaffiliated First   25000 PRESIDENT OF THE UNITED S…
##  2  1790 Washington,George Unaffiliated First   25000 PRESIDENT OF THE UNITED S…
##  3  1791 Washington,George Unaffiliated First   25000 PRESIDENT OF THE UNITED S…
##  4  1792 Washington,George Unaffiliated First   25000 PRESIDENT OF THE UNITED S…
##  5  1793 Washington,George Unaffiliated Second  25000 PRESIDENT OF THE UNITED S…
##  6  1794 Washington,George Unaffiliated Second  25000 PRESIDENT OF THE UNITED S…
##  7  1795 Washington,George Unaffiliated Second  25000 PRESIDENT OF THE UNITED S…
##  8  1796 Washington,George Unaffiliated Second  25000 PRESIDENT OF THE UNITED S…
##  9  1797 Adams,John        Federalist   First   25000 PRESIDENT OF THE UNITED S…
## 10  1798 Adams,John        Federalist   First   25000 PRESIDENT OF THE UNITED S…
## # … with 222 more rows
ggplot(data = pres_salary, aes(x = salary, y = year)) +
  geom_line()

<img src="{{< blogdown/postref >}}index_files/figure-html/unnamed-chunk-1-1.png" width="672" />

icons <- pres_salary %>% filter(name == "Washington,George" |
                                  name == "Lincoln,Abraham" |
                         name == "Roosevelt,Franklin Delano" |
                         name == "Nixon,Richard Milhous" |
                         name == "Bush,George Walker" |
                         name == "Obama,Barack Hussein,II" |
                         name == "Trump,Donald John")
icons

## # A tibble: 50 × 6
##     year name              party        term   salary position_title            
##    <dbl> <chr>             <chr>        <chr>   <dbl> <chr>                     
##  1  1789 Washington,George Unaffiliated First   25000 PRESIDENT OF THE UNITED S…
##  2  1790 Washington,George Unaffiliated First   25000 PRESIDENT OF THE UNITED S…
##  3  1791 Washington,George Unaffiliated First   25000 PRESIDENT OF THE UNITED S…
##  4  1792 Washington,George Unaffiliated First   25000 PRESIDENT OF THE UNITED S…
##  5  1793 Washington,George Unaffiliated Second  25000 PRESIDENT OF THE UNITED S…
##  6  1794 Washington,George Unaffiliated Second  25000 PRESIDENT OF THE UNITED S…
##  7  1795 Washington,George Unaffiliated Second  25000 PRESIDENT OF THE UNITED S…
##  8  1796 Washington,George Unaffiliated Second  25000 PRESIDENT OF THE UNITED S…
##  9  1861 Lincoln,Abraham   Republican   First   25000 PRESIDENT OF THE UNITED S…
## 10  1862 Lincoln,Abraham   Republican   First   25000 PRESIDENT OF THE UNITED S…
## # … with 40 more rows
…
