…
Who were the billionaires with the top 10 highest net worths on the 2021 Forbes Billionaires List? How much are their net worths? What industry do they work in? Does any industry dominate the others?

<img src="{{< blogdown/postref >}}index_files/figure-html/unnamed-chunk-2-1.png" width="1056" />

How many billionaires are there from the top 30 countries on the list? Do developed democracies have the most billionaires on the list?

country <- forbes_billionaires %>% group_by(Country) %>%
  summarise(n = n()) %>%
  arrange(desc(n)) 

country_30 <- country %>% slice(1:30) %>%
  mutate(order = fct_reorder(.f = Country, .x = n))
country_30

## # A tibble: 30 × 3
##    Country            n order         
##    <chr>          <int> <fct>         
##  1 United States    724 United States 
##  2 China            626 China         
##  3 India            140 India         
##  4 Germany          136 Germany       
##  5 Russia           118 Russia        
##  6 Hong Kong         71 Hong Kong     
##  7 Brazil            65 Brazil        
##  8 Canada            64 Canada        
##  9 United Kingdom    56 United Kingdom
## 10 Italy             51 Italy         
## # … with 20 more rows
…
<img src="{{< blogdown/postref >}}index_files/figure-html/unnamed-chunk-7-1.png" width="672" />

<img src="{{< blogdown/postref >}}index_files/figure-html/unnamed-chunk-8-1.png" width="672" />

How many Billionaires in the Fashion Industry fall above and below the average net worth of American

<img src="{{< blogdown/postref >}}index_files/figure-html/unnamed-chunk-10-1.png" width="672" />

Put kable table with all the billionaires before this

Myabe change table from How many Billionaires are self-made to how many are self-made by industry

forbes_billionaires %>% select(Self_made, everything())

## # A tibble: 2,755 × 12
##    Self_made Name    NetWorth Country  Source   Rank   Age Residence Citizenship
##    <lgl>     <chr>      <dbl> <chr>    <chr>   <dbl> <dbl> <chr>     <chr>      
##  1 TRUE      Jeff B…    177   United … Amazon      1    57 Seattle,… United Sta…
##  2 TRUE      Elon M…    151   United … Tesla,…     2    49 Austin, … United Sta…
##  3 FALSE     Bernar…    150   France   LVMH        3    72 Paris, F… France     
##  4 TRUE      Bill G…    124   United … Micros…     4    65 Medina, … United Sta…
##  5 TRUE      Mark Z…     97   United … Facebo…     5    36 Palo Alt… United Sta…
##  6 TRUE      Warren…     96   United … Berksh…     6    90 Omaha, N… United Sta…
##  7 TRUE      Larry …     93   United … softwa…     7    76 Lanai, H… United Sta…
##  8 TRUE      Larry …     91.5 United … Google      8    48 Palo Alt… United Sta…
##  9 TRUE      Sergey…     89   United … Google      9    47 Los Alto… United Sta…
## 10 FALSE     Mukesh…     84.5 India    divers…    10    64 Mumbai, … India      
## # … with 2,745 more rows, and 3 more variables: Status <chr>, Children <dbl>,
## #   Education <chr>
…
combined_billionaires2 <- combined_billionaires %>% separate(col = Education, into = c("Degree", "University"),
                                 sep = ", ")

## Warning: Expected 2 pieces. Additional pieces discarded in 496 rows [6, 7, 8, 9,
## 10, 14, 19, 20, 21, 23, 25, 27, 29, 46, 49, 51, 59, 68, 71, 73, ...].

## Warning: Expected 2 pieces. Missing pieces filled with `NA` in 19 rows [101,
## 137, 291, 375, 457, 472, 596, 913, 984, 1143, 1471, 1656, 2075, 2491, 2508,
## 2621, 2661, 2742, 2743].

harvard <- combined_billionaires2 %>% filter(University == "Harvard University") 
harvard

## # A tibble: 26 × 19
##    Name  NetWorth.x Country.x Source.x Rank.x Age.x Residence Citizenship Status
##    <chr>      <dbl> <chr>     <chr>     <dbl> <dbl> <chr>     <chr>       <chr> 
##  1 Bill…      124   United S… Microso…      4    65 Medina, … United Sta… Divor…
##  2 Mark…       97   United S… Facebook      5    36 Palo Alt… United Sta… Marri…
##  3 Dust…       17.8 United S… Facebook    107    36 San Fran… United Sta… Marri…
##  4 Jorg…       16.9 Brazil    beer        114    81 Zurich, … Brazil      Marri…
##  5 Ken …       16   United S… hedge f…    119    52 Chicago,… United Sta… Divor…
##  6 Edua…       14.6 Brazil    Facebook    140    39 Singapor… Brazil      Marri…
##  7 Nath…       12.4 United S… Airbnb      177    37 San Fran… United Sta… Marri…
##  8 Edwa…       10.3 United S… money m…    219    90 Boston, … United Sta… Marri…
##  9 Alex…        7   Brazil    investm…    369    54 Greenwic… Brazil      Marri…
## 10 Gust…        7   Sweden    investm…    369    83 Stockhol… Sweden      Marri…
## # … with 16 more rows, and 10 more variables: Children <dbl>, Degree <chr>,
## #   University <chr>, Self_made <lgl>, NetWorth.y <chr>, Country.y <chr>,
## #   Source.y <chr>, Rank.y <dbl>, Age.y <chr>, Industry <chr>
…
tidy_education <- forbes_billionaires %>% 
  separate(col = Education, into = c("Degree", "University"),
                                 sep = ", ") %>%
  select(Degree, University, everything())

## Warning: Expected 2 pieces. Additional pieces discarded in 496 rows [6, 7, 8, 9,
## 10, 14, 19, 20, 21, 23, 25, 27, 29, 46, 49, 51, 59, 68, 71, 73, ...].

## Warning: Expected 2 pieces. Missing pieces filled with `NA` in 19 rows [101,
## 137, 291, 375, 457, 472, 596, 911, 982, 1141, 1468, 1652, 2069, 2485, 2502,
## 2615, 2655, 2736, 2737].

tidy_education

## # A tibble: 2,755 × 13
##    Degree   University     Name    NetWorth Country Source  Rank   Age Residence
##    <chr>    <chr>          <chr>      <dbl> <chr>   <chr>  <dbl> <dbl> <chr>    
##  1 Bachelo… Princeton Uni… Jeff B…    177   United… Amazon     1    57 Seattle,…
##  2 Bachelo… University of… Elon M…    151   United… Tesla…     2    49 Austin, …
##  3 Bachelo… Ecole Polytec… Bernar…    150   France  LVMH       3    72 Paris, F…
##  4 Drop Out Harvard Unive… Bill G…    124   United… Micro…     4    65 Medina, …
##  5 Drop Out Harvard Unive… Mark Z…     97   United… Faceb…     5    36 Palo Alt…
##  6 Master … Columbia Univ… Warren…     96   United… Berks…     6    90 Omaha, N…
##  7 Drop Out University of… Larry …     93   United… softw…     7    76 Lanai, H…
##  8 Master … Stanford Univ… Larry …     91.5 United… Google     8    48 Palo Alt…
##  9 Master … Stanford Univ… Sergey…     89   United… Google     9    47 Los Alto…
## 10 Drop Out Stanford Univ… Mukesh…     84.5 India   diver…    10    64 Mumbai, …
## # … with 2,745 more rows, and 4 more variables: Citizenship <chr>,
## #   Status <chr>, Children <dbl>, Self_made <lgl>

tidy_education %>% group_by(Degree) %>%
  summarise(n = n()) %>%
  arrange(desc(n))

## # A tibble: 67 × 2
##    Degree                                 n
##    <chr>                              <int>
##  1 <NA>                                1346
##  2 Bachelor of Arts/Science             638
##  3 Master of Business Administration    166
##  4 Master of Science                     82
##  5 Drop Out                              74
##  6 Bachelor of Science                   46
##  7 Bachelor of Science in Engineering    44
##  8 Doctorate                             40
##  9 Diploma                               35
## 10 Bachelor of Arts/Economics            29
## # … with 57 more rows

tidy_education %>% filter(University == "Harvard University")

## # A tibble: 26 × 13
##    Degree    University  Name    NetWorth Country  Source  Rank   Age Residence 
##    <chr>     <chr>       <chr>      <dbl> <chr>    <chr>  <dbl> <dbl> <chr>     
##  1 Drop Out  Harvard Un… Bill G…    124   United … Micro…     4    65 Medina, W…
##  2 Drop Out  Harvard Un… Mark Z…     97   United … Faceb…     5    36 Palo Alto…
##  3 Drop Out  Harvard Un… Dustin…     17.8 United … Faceb…   107    36 San Franc…
##  4 Bachelor… Harvard Un… Jorge …     16.9 Brazil   beer     114    81 Zurich, S…
##  5 Bachelor… Harvard Un… Ken Gr…     16   United … hedge…   119    52 Chicago, …
##  6 Bachelor… Harvard Un… Eduard…     14.6 Brazil   Faceb…   140    39 Singapore…
##  7 Bachelor… Harvard Un… Nathan…     12.4 United … Airbnb   177    37 San Franc…
##  8 Bachelor… Harvard Un… Edward…     10.3 United … money…   219    90 Boston, M…
##  9 EMBA      Harvard Un… Alexan…      7   Brazil   inves…   369    54 Greenwich…
## 10 Master o… Harvard Un… Gustaf…      7   Sweden   inves…   369    83 Stockholm…
## # … with 16 more rows, and 4 more variables: Citizenship <chr>, Status <chr>,
## #   Children <dbl>, Self_made <lgl>
…
## The following object is masked from 'package:stats':
## 
##     filter

## The following object is masked from 'package:graphics':
## 
##     layout

us_forbes_billionaires <- combined_billionaires %>% filter(Country.x == "United States")
us_forbes_billionaires

## # A tibble: 724 × 18
##    Name  NetWorth.x Country.x Source.x Rank.x Age.x Residence Citizenship Status
##    <chr>      <dbl> <chr>     <chr>     <dbl> <dbl> <chr>     <chr>       <chr> 
##  1 Jeff…      177   United S… Amazon        1    57 Seattle,… United Sta… In Re…
##  2 Elon…      151   United S… Tesla, …      2    49 Austin, … United Sta… In Re…
##  3 Bill…      124   United S… Microso…      4    65 Medina, … United Sta… Divor…
##  4 Mark…       97   United S… Facebook      5    36 Palo Alt… United Sta… Marri…
##  5 Warr…       96   United S… Berkshi…      6    90 Omaha, N… United Sta… Widow…
##  6 Larr…       93   United S… software      7    76 Lanai, H… United Sta… In Re…
##  7 Larr…       91.5 United S… Google        8    48 Palo Alt… United Sta… Marri…
##  8 Serg…       89   United S… Google        9    47 Los Alto… United Sta… Marri…
##  9 Stev…       68.7 United S… Microso…     14    65 Hunts Po… United Sta… Marri…
## 10 Alic…       61.8 United S… Walmart      17    71 Fort Wor… United Sta… Divor…
## # … with 714 more rows, and 9 more variables: Children <dbl>, Education <chr>,
## #   Self_made <lgl>, NetWorth.y <chr>, Country.y <chr>, Source.y <chr>,
## #   Rank.y <dbl>, Age.y <chr>, Industry <chr>
…
## Rows: 2755 Columns: 13

## ── Column specification ────────────────────────────────────────────────────────
## Delimiter: ","
## chr (8): Name, Country, Source, Residence, Citizenship, Status, Education, g...
## dbl (4): NetWorth, Rank, Age, Children
## lgl (1): Self_made

## 
## ℹ Use `spec()` to retrieve the full column specification for this data.
## ℹ Specify the column types or set `show_col_types = FALSE` to quiet this message.

forbes_billionaires_geo %>% select(geometry, everything())

## # A tibble: 2,755 × 13
##    geometry   Name    NetWorth Country  Source  Rank   Age Residence Citizenship
##    <chr>      <chr>      <dbl> <chr>    <chr>  <dbl> <dbl> <chr>     <chr>      
##  1 POINT (-1… Jeff B…    177   United … Amazon     1    57 Seattle,… United Sta…
##  2 POINT (-9… Elon M…    151   United … Tesla…     2    49 Austin, … United Sta…
##  3 POINT (2.… Bernar…    150   France   LVMH       3    72 Paris, F… France     
##  4 POINT (-1… Bill G…    124   United … Micro…     4    65 Medina, … United Sta…
##  5 POINT (-1… Mark Z…     97   United … Faceb…     5    36 Palo Alt… United Sta…
##  6 POINT (-9… Warren…     96   United … Berks…     6    90 Omaha, N… United Sta…
##  7 POINT (-1… Larry …     93   United … softw…     7    76 Lanai, H… United Sta…
##  8 POINT (-1… Larry …     91.5 United … Google     8    48 Palo Alt… United Sta…
##  9 POINT (-1… Sergey…     89   United … Google     9    47 Los Alto… United Sta…
## 10 POINT (72… Mukesh…     84.5 India    diver…    10    64 Mumbai, … India      
## # … with 2,745 more rows, and 4 more variables: Status <chr>, Children <dbl>,
## #   Education <chr>, Self_made <lgl>
